624 Week 1
…
vic_elec From 2012 to 2015 This shows a seasonal pattern

vic_elec

## # A tsibble: 52,608 x 5 [30m] <Australia/Melbourne>
##    Time                Demand Temperature Date       Holiday
##    <dttm>               <dbl>       <dbl> <date>     <lgl>  
##  1 2012-01-01 00:00:00  4383.        21.4 2012-01-01 TRUE   
##  2 2012-01-01 00:30:00  4263.        21.0 2012-01-01 TRUE   
##  3 2012-01-01 01:00:00  4049.        20.7 2012-01-01 TRUE   
##  4 2012-01-01 01:30:00  3878.        20.6 2012-01-01 TRUE   
##  5 2012-01-01 02:00:00  4036.        20.4 2012-01-01 TRUE   
##  6 2012-01-01 02:30:00  3866.        20.2 2012-01-01 TRUE   
##  7 2012-01-01 03:00:00  3694.        20.1 2012-01-01 TRUE   
##  8 2012-01-01 03:30:00  3562.        19.6 2012-01-01 TRUE   
##  9 2012-01-01 04:00:00  3433.        19.1 2012-01-01 TRUE   
## 10 2012-01-01 04:30:00  3359.        19.0 2012-01-01 TRUE   
## #  52,598 more rows
…
Create a new tsibble which combines the Purposes and Regions, and
just has total trips by State.

tourr2 %>% 
  group_by(State) %>% 
  summarise(total_trip=sum(Trips)) %>% 
  index_by(Quarter)

## # A tsibble: 640 x 3 [1Q]
## # Key:       State [8]
## # Groups:    @ Quarter [80]
##    State Quarter total_trip
##    <chr>   <qtr>      <dbl>
##  1 ACT   1998 Q1       551.
##  2 ACT   1998 Q2       416.
##  3 ACT   1998 Q3       436.
##  4 ACT   1998 Q4       450.
##  5 ACT   1999 Q1       379.
##  6 ACT   1999 Q2       558.
##  7 ACT   1999 Q3       449.
##  8 ACT   1999 Q4       595.
##  9 ACT   2000 Q1       600.
## 10 ACT   2000 Q2       557.
## #  630 more rows
…
